Functions Lab - Key
…
# General format
data |>
  mutate(across(
    {vector or tidyselect},
    {some function}
  ))

ces |>
  mutate(across(
    contains("Pctl"),
    function(x) x / 100
  )) |>
  select(contains("Pctl"))

## # A tibble: 8,035 × 23
##    OzonePctl PM2.5.Pctl DieselPMPctl DrinkingWaterPctl LeadPctl PesticidesPctl
##        <dbl>      <dbl>        <dbl>             <dbl>    <dbl>          <dbl>
##  1    0.0312      0.363        0.348            0.0421   0.0774              0
##  2    0.0312      0.420        0.927            0.0421   0.682               0
##  3    0.0312      0.439        0.898            0.0421   0.642               0
##  4    0.0312      0.428        0.791            0.0421   0.671               0
##  5    0.0312      0.428        0.676            0.0421   0.680               0
##  6    0.0312      0.428        0.838            0.0421   0.697               0
##  7    0.0312      0.433        0.813            0.0421   0.769               0
##  8    0.0312      0.440        0.687            0.0421   0.732               0
##  9    0.0312      0.440        0.811            0.0421   0.867               0
## 10    0.0312      0.458        0.994            0.0421   0.885               0
## # ℹ 8,025 more rows
## # ℹ 17 more variables: ToxReleasePctl <dbl>, TrafficPctl <dbl>,
## #   CleanupSitesPctl <dbl>, GroundwaterThreatsPctl <dbl>, HazWastePctl <dbl>,
## #   ImpWaterBodiesPctl <dbl>, SolidWastePctl <dbl>, PollutionBurdenPctl <dbl>,
## #   AsthmaPctl <dbl>, LowBirthWeightPctl <dbl>,
## #   CardiovascularDiseasePctl <dbl>, PopCharPctl <dbl>, EducationPctl <dbl>,
## #   LinguisticIsolPctl <dbl>, PovertyPctl <dbl>, UnemploymentPctl <dbl>, …
…
